Mr | Kwame | null | Kwaku | 1429937 | male | 11/11/2000 | 18 | kumasi | Kumasi | kumasi | O_negative | 4546464 | 02477565456 | kwame@gmail.com | Tue Dec 04 22:45:41 GMT 2018 | Tue Dec 04 22:45:41 GMT 2018 | 
Mr | Kwabena | null | Yaw | 9528031 | male | 11/12/1999 | 20 | Accra | Accra | Accra | O_positive | 48977964 | 056545456 | kwabena@gmail.com | Tue Dec 04 22:45:41 GMT 2018 | Tue Dec 04 22:45:41 GMT 2018 | 
Mrs | Ama | Tawiah | Antwi | 6736334 | female | 20/11/2000 | 19 | kwabenya | kwabenya | kwabenya | AB_negative | 3218797 | 02477325456 | amaantwi@gmail.com | Tue Dec 04 22:45:41 GMT 2018 | Tue Dec 04 22:45:41 GMT 2018 | 
Miss | Efua | null | kantanka | 9641025 | female | 30/06/2001 | 18 | Tafo | Tafo | Tafo | B_negative | 988964 | 02470000456 | efua@gmail.com | Tue Dec 04 22:45:41 GMT 2018 | Tue Dec 04 22:45:41 GMT 2018 | 
Mr | Kwaku | null | Osei-Tutu | 4983814 | male | 24/08/1999 | 20 | kumasi | Kumasi | kumasi | A_negative | 3231336 | 024697667 | bobbie@gmail.com | Tue Dec 04 22:45:41 GMT 2018 | Tue Dec 04 22:45:41 GMT 2018 | 
Mrs | leticia | null | Ntim | 4291579 | female | 31/1/2001 | 17 | Mampong | Mampong | Mampong | AB_positive | null | null | null | Tue Dec 04 22:45:41 GMT 2018 | Tue Dec 04 22:45:41 GMT 2018 | 
Mrs | Francisca | null | kankam | 8383304 | female | 30/11/2003 | 15 | Aburi | Aburi | Aburi | O_positive | null | null | null | Tue Dec 04 22:45:41 GMT 2018 | Tue Dec 04 22:45:41 GMT 2018 | 
Mr | Rockson | Ntiamoah | Boateng | 3912049 | male | 12/12/2005 | 13 | Santaase | Santaase | Santaase | B_positive | 649549 | 0265431332 | rockson@gmail.com | Tue Dec 04 22:45:41 GMT 2018 | Tue Dec 04 22:45:41 GMT 2018 | 
Mr | Majid | Antwi | Osman | 5151566 | male | 13/10/2000 | 18 | Ejisu | Ejisu | Ejisu | A_positive | null | null | null | Tue Dec 04 22:45:41 GMT 2018 | Tue Dec 04 22:45:41 GMT 2018 | 
Mrs | Erica | null | Betsy | 5876122 | female | 25/12/2016 | 2 | Akaase | Akaase | Akaase | B_positive | 87987994 | 05769766325 | erica@gmail.com | Tue Dec 04 22:45:41 GMT 2018 | Tue Dec 04 22:45:41 GMT 2018 | 
Mr | Kwaku | Bobie | Osei-Tutu | 9817441 | male | 3/2/1999 | 19 | Kumasi | Koforidua | Koforidua | B_negative | 42345253 | 0240656903 | null | Tue Dec 04 23:12:35 GMT 2018 | Tue Dec 04 23:13:56 GMT 2018 | 
